%YAML 1.1
%TAG !u! tag:unity3d.com,2011:
--- !u!114 &11400000
MonoBehaviour:
  m_ObjectHideFlags: 0
  m_CorrespondingSourceObject: {fileID: 0}
  m_PrefabInstance: {fileID: 0}
  m_PrefabAsset: {fileID: 0}
  m_GameObject: {fileID: 0}
  m_Enabled: 1
  m_EditorHideFlags: 0
  m_Script: {fileID: 11500000, guid: e9620f8c34305754d8cc9a7e49e852d9, type: 3}
  m_Name: CitadelsLocalization_en
  m_EditorClassIdentifier: 
  m_LocaleId:
    m_Code: en
  m_SharedData: {fileID: 11400000, guid: 4b52d65d17f59ad44a7944233548044e, type: 2}
  m_Metadata:
    m_Items: []
  m_TableData:
  - m_Id: 5
    m_Localized: Thief
    m_Metadata:
      m_Items: []
  - m_Id: 7
    m_Localized: zadaz
    m_Metadata:
      m_Items: []
  - m_Id: 8
    m_Localized: Assassin
    m_Metadata:
      m_Items: []
  - m_Id: 9
    m_Localized: Announce a character you wish to murder. The murdered character
      misses his entire turn.
    m_Metadata:
      m_Items: []
  - m_Id: 10
    m_Localized: Thief
    m_Metadata:
      m_Items: []
  - m_Id: 11
    m_Localized: Announce a character from whom you wish to steal. When the player
      with this card is revealed, take his gold.
    m_Metadata:
      m_Items: []
  - m_Id: 12
    m_Localized: Magician
    m_Metadata:
      m_Items: []
  - m_Id: 13
    m_Localized: You may either exchange your cards with another player or discard
      any number of cards and draw an equal number of cards.
    m_Metadata:
      m_Items: []
  - m_Id: 14
    m_Localized: King
    m_Metadata:
      m_Items: []
  - m_Id: 15
    m_Localized: You receive one gold for each noble (yellow) district in your city.
      When the king is called, you immediately receive the crown counter.
    m_Metadata:
      m_Items: []
  - m_Id: 16
    m_Localized: Bishop
    m_Metadata:
      m_Items: []
  - m_Id: 17
    m_Localized: You receive one gold for each religious (blue) district in your
      city. Your districts may not be destroyed by the Warlord.
    m_Metadata:
      m_Items: []
  - m_Id: 18
    m_Localized: Merchant
    m_Metadata:
      m_Items: []
  - m_Id: 19
    m_Localized: You receive one gold for each trade (green) district in your city.
      When you take an action, you receive one extra gold.
    m_Metadata:
      m_Items: []
  - m_Id: 20
    m_Localized: Architect
    m_Metadata:
      m_Items: []
  - m_Id: 21
    m_Localized: After you take an action, draw two extra cards and put both in your
      hand. You may build up to threee districts during your turn.
    m_Metadata:
      m_Items: []
  - m_Id: 22
    m_Localized: Warlord
    m_Metadata:
      m_Items: []
  - m_Id: 23
    m_Localized: You receive one gold for each military (red) district in your city.
      You may pay to destroy one district of your choice.
    m_Metadata:
      m_Items: []
  - m_Id: 24
    m_Localized: Temple
    m_Metadata:
      m_Items: []
  - m_Id: 25
    m_Localized: Church
    m_Metadata:
      m_Items: []
  - m_Id: 26
    m_Localized: Monastery
    m_Metadata:
      m_Items: []
  - m_Id: 27
    m_Localized: 'Cathedral '
    m_Metadata:
      m_Items: []
  - m_Id: 28
    m_Localized: Manor
    m_Metadata:
      m_Items: []
  - m_Id: 29
    m_Localized: Castle
    m_Metadata:
      m_Items: []
  - m_Id: 30
    m_Localized: Palace
    m_Metadata:
      m_Items: []
  - m_Id: 31
    m_Localized: Tavern
    m_Metadata:
      m_Items: []
  - m_Id: 32
    m_Localized: Trading Post
    m_Metadata:
      m_Items: []
  - m_Id: 33
    m_Localized: Market
    m_Metadata:
      m_Items: []
  - m_Id: 34
    m_Localized: Docks
    m_Metadata:
      m_Items: []
  - m_Id: 35
    m_Localized: Harbor
    m_Metadata:
      m_Items: []
  - m_Id: 36
    m_Localized: Town Hall
    m_Metadata:
      m_Items: []
  - m_Id: 37
    m_Localized: Watchtower
    m_Metadata:
      m_Items: []
  - m_Id: 38
    m_Localized: Prison
    m_Metadata:
      m_Items: []
  - m_Id: 39
    m_Localized: Battlefield
    m_Metadata:
      m_Items: []
  - m_Id: 40
    m_Localized: Fortress
    m_Metadata:
      m_Items: []
  - m_Id: 41
    m_Localized: Haunted City
    m_Metadata:
      m_Items: []
  - m_Id: 42
    m_Localized: For the purposes of victory points, the Haunted City is considered
      to be of the color of your choice. You cannot use this ability if you built
      it during the last round of the game.
    m_Metadata:
      m_Items: []
  - m_Id: 43
    m_Localized: Keep
    m_Metadata:
      m_Items: []
  - m_Id: 44
    m_Localized: The Keep cannot be destroyed by the Warlord.
    m_Metadata:
      m_Items: []
  - m_Id: 45
    m_Localized: Laboratory
    m_Metadata:
      m_Items: []
  - m_Id: 46
    m_Localized: Once during your turn, you may discard a district card from your
      hand and receive one gold from the bank.
    m_Metadata:
      m_Items: []
  - m_Id: 47
    m_Localized: Smithy
    m_Metadata:
      m_Items: []
  - m_Id: 48
    m_Localized: Once during your turn, you may pay two gold to draw 3 district cards.
    m_Metadata:
      m_Items: []
  - m_Id: 49
    m_Localized: Observatory
    m_Metadata:
      m_Items: []
  - m_Id: 50
    m_Localized: If you choose to draw cards when you take an action, you draw 3
      cards, keep one of your choice, and put the other 2 on the bottom of the deck.
    m_Metadata:
      m_Items: []
  - m_Id: 51
    m_Localized: Graveyard
    m_Metadata:
      m_Items: []
  - m_Id: 52
    m_Localized: When the Warlord destroys a district, you may pay one gold to take
      the destroyed district into your hand. You may not do this if you are the Warlord.
    m_Metadata:
      m_Items: []
  - m_Id: 53
    m_Localized: Library
    m_Metadata:
      m_Items: []
  - m_Id: 54
    m_Localized: If you choose to draw cards you you take an action, you keep both
      of the cards you have drawn.
    m_Metadata:
      m_Items: []
  - m_Id: 55
    m_Localized: School Of Magic
    m_Metadata:
      m_Items: []
  - m_Id: 56
    m_Localized: For the purposes of income, the School Of Magic I considered to
      be the color of your choice. If you are the King this round, for example, the
      School is considered to be a noble (yellow) district.
    m_Metadata:
      m_Items: []
  - m_Id: 57
    m_Localized: University
    m_Metadata:
      m_Items: []
  - m_Id: 58
    m_Localized: This district costs 6 gold to build, but is worth 8 points at the
      end of the game.
    m_Metadata:
      m_Items: []
  - m_Id: 59
    m_Localized: Dragon Gate
    m_Metadata:
      m_Items: []
  - m_Id: 60
    m_Localized: This district costs 6 gold to build, but is worth 8 points at the
      end of the game.
    m_Metadata:
      m_Items: []
  references:
    version: 1
