%YAML 1.1
%TAG !u! tag:unity3d.com,2011:
--- !u!114 &11400000
MonoBehaviour:
  m_ObjectHideFlags: 0
  m_CorrespondingSourceObject: {fileID: 0}
  m_PrefabInstance: {fileID: 0}
  m_PrefabAsset: {fileID: 0}
  m_GameObject: {fileID: 0}
  m_Enabled: 1
  m_EditorHideFlags: 0
  m_Script: {fileID: 11500000, guid: 92854014ead59544dbdc71fd8c4ba464, type: 3}
  m_Name: PRISON
  m_EditorClassIdentifier: 
  _id: PRISON
  _name: Prison
  _cost: 2
  _description: 
  _type: 4
