%YAML 1.1
%TAG !u! tag:unity3d.com,2011:
--- !u!114 &11400000
MonoBehaviour:
  m_ObjectHideFlags: 0
  m_CorrespondingSourceObject: {fileID: 0}
  m_PrefabInstance: {fileID: 0}
  m_PrefabAsset: {fileID: 0}
  m_GameObject: {fileID: 0}
  m_Enabled: 1
  m_EditorHideFlags: 0
  m_Script: {fileID: 11500000, guid: bbb281ee3bf0b054c82ac2347e9e782c, type: 3}
  m_Name: Default Local Group
  m_EditorClassIdentifier: 
  m_GroupName: Default Local Group
  m_Data:
    m_SerializedData: []
  m_GUID: 54b6a1c0c894f8c47b17738468199856
  m_SerializeEntries: []
  m_ReadOnly: 0
  m_Settings: {fileID: 11400000, guid: f87c2a2dd971d5448b2d21136897d4ea, type: 2}
  m_SchemaSet:
    m_Schemas:
    - {fileID: 11400000, guid: 632882ffcc3e38945b2cc703ac0f8766, type: 2}
    - {fileID: 11400000, guid: d682f9fc2e68af24caf46113bf76ea49, type: 2}
