%YAML 1.1
%TAG !u! tag:unity3d.com,2011:
--- !u!114 &11400000
MonoBehaviour:
  m_ObjectHideFlags: 0
  m_CorrespondingSourceObject: {fileID: 0}
  m_PrefabInstance: {fileID: 0}
  m_PrefabAsset: {fileID: 0}
  m_GameObject: {fileID: 0}
  m_Enabled: 1
  m_EditorHideFlags: 0
  m_Script: {fileID: 11500000, guid: bbb281ee3bf0b054c82ac2347e9e782c, type: 3}
  m_Name: Localization-Locales
  m_EditorClassIdentifier: 
  m_GroupName: Localization-Locales
  m_Data:
    m_SerializedData: []
  m_GUID: 43ba19f3aac57944ebac4abb42975f06
  m_SerializeEntries:
  - m_GUID: 0634a103a831af74db3c63b7bf935b7d
    m_Address: English (en)
    m_ReadOnly: 1
    m_SerializedLabels:
    - Locale
    m_MainAsset: {fileID: 0}
    m_TargetAsset: {fileID: 0}
  - m_GUID: fc66a762c29e84d43819c4f860514dc3
    m_Address: French (fr)
    m_ReadOnly: 1
    m_SerializedLabels:
    - Locale
    m_MainAsset: {fileID: 0}
    m_TargetAsset: {fileID: 0}
  m_ReadOnly: 1
  m_Settings: {fileID: 11400000, guid: f87c2a2dd971d5448b2d21136897d4ea, type: 2}
  m_SchemaSet:
    m_Schemas:
    - {fileID: 11400000, guid: a496f974007c9fc43814f16f2b3195e2, type: 2}
    - {fileID: 11400000, guid: db06904b5186f1e40b2eefb4f18f2fe8, type: 2}
