%YAML 1.1
%TAG !u! tag:unity3d.com,2011:
--- !u!114 &11400000
MonoBehaviour:
  m_ObjectHideFlags: 0
  m_CorrespondingSourceObject: {fileID: 0}
  m_PrefabInstance: {fileID: 0}
  m_PrefabAsset: {fileID: 0}
  m_GameObject: {fileID: 0}
  m_Enabled: 1
  m_EditorHideFlags: 0
  m_Script: {fileID: 11500000, guid: 6798ba0973d52f94f84b7245e09b06e8, type: 3}
  m_Name: 3_MAGICIAN
  m_EditorClassIdentifier: Assembly-CSharp::RoleCardData
  _id: MAGICIAN
  _rank: 3
  _background: {fileID: 0}
